…
[This Wang Y et al., paper](https://www.sciencedirect.com/science/article/pii/S0092867419311651) is the mouse study that this current project is based on. Referencing their **Figure 2D**, I'm going to pull those markers from our data and check how well the expression aligns with theirs.

### 2.1 Converting mouse genes to their human homologues  

Now, the genes which we want to look at are mouse genes. We need to first convert them to their human equivalents. 


```r
#stappenbeck markers
stappenbeck_genes <- read_excel(here::here("data", "Processed", "Stappenbeck_Fig2D_markers.xlsx"), col_names = TRUE)
stappenbeck_genes
```

```
## # A tibble: 22 x 2
##    mouse_genes marker      
##    <chr>       <chr>       
##  1 Atoh1       Secretory_TF
##  2 Gfi1        Secretory_TF
##  3 Spdef       Secretory_TF
##  4 Nkx2-2      Secretory_TF
##  5 Neurog3     Secretory_TF
##  6 Neurod1     Secretory_TF
##  7 Muc2        Goblet      
##  8 Tff3        Goblet      
##  9 Fcgbp       Goblet      
## 10 Agr2        Goblet      
## # ... with 12 more rows
```
…
mm_to_HGNC <- read.xlsx(here::here("data", "Processed", "mouse_human_homologues.xlsx"), colNames = TRUE, rowNames = FALSE)

stappenbeck_genes <- stappenbeck_genes %>% 
  left_join(mm_to_HGNC, by = c("mouse_genes" = "mouse"))

custom_genes <- stappenbeck_genes %>% 
  dplyr::select(human)

custom_genes
```

```
## # A tibble: 22 x 1
##    human  
##    <chr>  
##  1 ATOH1  
##  2 GFI1   
##  3 SPDEF  
##  4 NKX2-2 
##  5 NEUROG3
##  6 NEUROD1
##  7 MUC2   
##  8 TFF3   
##  9 FCGBP  
## 10 AGR2   
## # ... with 12 more rows
```
…
stappenbeck_stables_markers <- list(goblet, entero, DSS, fetal)
names(stappenbeck_stables_markers) <- c("goblet", "entero", "DSS", "fetal")

stappenbeck_stables_markers <- map(stappenbeck_stables_markers, ~ .x %>%
                                     left_join(mm_to_HGNC, by = c("PROBE" = "mouse")))

not_in_stap <- map(stappenbeck_stables_markers, ~ .x %>% 
                     filter(is.na(human)))

head(not_in_stap)
```

```
## $goblet
## # A tibble: 36 x 3
##    PROBE   Homologue_number human
##    <chr>              <dbl> <chr>
##  1 Ces1c             117484 <NA> 
##  2 Ang4              135633 <NA> 
##  3 Ccl6               22507 <NA> 
##  4 Ces1e             115660 <NA> 
##  5 Cyp2c68            74936 <NA> 
##  6 Gstm3              37356 <NA> 
##  7 Igtp               23118 <NA> 
##  8 Adh6a              66291 <NA> 
##  9 Cyp2d26           130660 <NA> 
## 10 Gm15564               NA <NA> 
## # ... with 26 more rows
## 
## $entero
## # A tibble: 32 x 3
##    PROBE         Homologue_number human
##    <chr>                    <dbl> <chr>
##  1 Ces1c                   117484 <NA> 
##  2 1700086L19Rik               NA <NA> 
##  3 Ang4                    135633 <NA> 
##  4 Ccl6                     22507 <NA> 
##  5 Ccl9                     86734 <NA> 
##  6 Fam183b                  28543 <NA> 
##  7 Rap1gapos                   NA <NA> 
##  8 Gm11963                     NA <NA> 
##  9 Nefm                    137211 <NA> 
## 10 1810041L15Rik               NA <NA> 
## # ... with 22 more rows
## 
## $DSS
## # A tibble: 43 x 3
##    PROBE    Homologue_number human
##    <chr>               <dbl> <chr>
##  1 Ctgf                   NA <NA> 
##  2 Tnfsf9             137221 <NA> 
##  3 Abi3bp             134172 <NA> 
##  4 mt-Tc                  NA <NA> 
##  5 mt-Tp                  NA <NA> 
##  6 Scarna17               NA <NA> 
##  7 Gm24494                NA <NA> 
##  8 Gm23119                NA <NA> 
##  9 Hspa1b             133785 <NA> 
## 10 Gm24616                NA <NA> 
## # ... with 33 more rows
## 
## $fetal
## # A tibble: 30 x 3
##    PROBE         Homologue_number human
##    <chr>                    <dbl> <chr>
##  1 Ctgf                        NA <NA> 
##  2 Prl2c3                   40763 <NA> 
##  3 Serpinb9b               137240 <NA> 
##  4 Fam198b                     NA <NA> 
##  5 Ggta1                     7730 <NA> 
##  6 Crip2                   133917 <NA> 
##  7 Serpinb6b                22633 <NA> 
##  8 Prkcdbp                     NA <NA> 
##  9 1110028F11Rik               NA <NA> 
## 10 Oas1f                    86720 <NA> 
## # ... with 20 more rows
```
…
Let's now take a look at the markers from [this paper by Smillie, C et al.,](https://www.sciencedirect.com/science/article/pii/S0092867419307329?via%3Dihub).  

I already appended the Excel file to put each gene into a separate cell. I'll now make it into a df so that all genes are in one column.  


```r
#Smillie markers
smillie <- read_excel(here::here("data", "Processed", "Smillie_genes.xlsx"), col_names = TRUE)

smillie
```

```
## # A tibble: 71 x 16
##    `UC GSEA Genes` Overlap ...3  ...4  ...5  ...6  ...7  ...8  ...9  ...10 ...11
##    <chr>           <chr>   <chr> <chr> <chr> <chr> <chr> <chr> <chr> <chr> <chr>
##  1 E_epithelial    TNFRSF~ IFNG~ TNFS~ SMPD1 SPAT~ HIST~ PARP4 CHMP~ TICA~ <NA> 
##  2 E_epithelial    EZR     CGN   TJP3  ARHG~ MYH14 MARV~ SLC9~ SYNPO ARHG~ SRC  
##  3 E_epithelial    PIP5K1B PDGFA SLC9~ SCIN  BDKR~ MAPK3 GNG12 <NA>  <NA>  <NA> 
##  4 E_epithelial    GBA     CTSD  IDS   LITAF ARSA  CTSA  <NA>  <NA>  <NA>  <NA> 
##  5 E_epithelial    EHD1    VPS3~ IL2RG SMAD3 PDCD~ DNM2  <NA>  <NA>  <NA>  <NA> 
##  6 E_epithelial    CASP7   CASP~ <NA>  <NA>  <NA>  <NA>  <NA>  <NA>  <NA>  <NA> 
##  7 E_epithelial    PTK2B   DGKA  PPAP~ <NA>  <NA>  <NA>  <NA>  <NA>  <NA>  <NA> 
##  8 E_epithelial    CDKN1A  JUND  GNA11 AKAP~ <NA>  <NA>  <NA>  <NA>  <NA>  <NA> 
##  9 E_epithelial    IL22RA1 IFNL~ PIM1  <NA>  <NA>  <NA>  <NA>  <NA>  <NA>  <NA> 
## 10 E_epithelial    WIPF2   PSD4  RAB1~ WASL  ITCH  ACAP2 CDC42 EPN1  CHMP~ CHMP~
## # ... with 61 more rows, and 5 more variables: ...12 <chr>, ...13 <chr>,
## #   ...14 <chr>, ...15 <chr>, Condition <chr>
```

```r
smillie <- smillie %>% 
  pivot_longer(names_to = "x", values_to = "gene", cols = 2:15)

smillie
```

```
## # A tibble: 994 x 4
##    `UC GSEA Genes` Condition x       gene     
##    <chr>           <chr>     <chr>   <chr>    
##  1 E_epithelial    UC        Overlap TNFRSF1A 
##  2 E_epithelial    UC        ...3    IFNGR2   
##  3 E_epithelial    UC        ...4    TNFSF10  
##  4 E_epithelial    UC        ...5    SMPD1    
##  5 E_epithelial    UC        ...6    SPATA2L  
##  6 E_epithelial    UC        ...7    HIST1H2AC
##  7 E_epithelial    UC        ...8    PARP4    
##  8 E_epithelial    UC        ...9    CHMP1A   
##  9 E_epithelial    UC        ...10   TICAM1   
## 10 E_epithelial    UC        ...11   <NA>     
## # ... with 984 more rows
```
…
```r
ali_d7_rnk <- ali_d7_rnk %>% 
  select(GeneName, log2FoldChange)
  
#write.xlsx(ali_d7_rnk, file = here::here("data", "Processed", "d10_alid7_rnk.xlsx"), colnames = TRUE)

smillie_gmt <- smillie %>% 
  unite("term", cell_type:Condition)

smillie_gmt
```

```
## # A tibble: 292 x 3
##    term            gene_symbol   gene
##    <chr>           <chr>        <dbl>
##  1 E_epithelial_UC TNFRSF1A      7132
##  2 E_epithelial_UC IFNGR2        3460
##  3 E_epithelial_UC TNFSF10       8743
##  4 E_epithelial_UC SMPD1         6609
##  5 E_epithelial_UC SPATA2L     124044
##  6 E_epithelial_UC PARP4          143
##  7 E_epithelial_UC CHMP1A        5119
##  8 E_epithelial_UC TICAM1      148022
##  9 E_epithelial_UC EZR           7430
## 10 E_epithelial_UC CGN          57530
## # ... with 282 more rows
```
…
